Chapter 21 Grouping & Summarizing | Mastering R Through Errors and Warnings
…
21.3 Error #1: Forgetting Data is Grouped

⭐⭐ INTERMEDIATE 🧠 LOGIC

21.3.1 The Problem

# Group the data
cars_grouped <- mtcars %>%
  group_by(cyl)

# Later in code... expecting ungrouped behavior
cars_grouped %>%
  mutate(rank = row_number())  # Ranks within groups!
#> # A tibble: 32 × 12
#> # Groups:   cyl [3]
#>      mpg   cyl  disp    hp  drat    wt  qsec    vs    am  gear  carb  rank
#>    <dbl> <dbl> <dbl> <dbl> <dbl> <dbl> <dbl> <dbl> <dbl> <dbl> <dbl> <int>
#>  1  21       6  160    110  3.9   2.62  16.5     0     1     4     4     1
#>  2  21       6  160    110  3.9   2.88  17.0     0     1     4     4     2
#>  3  22.8     4  108     93  3.85  2.32  18.6     1     1     4     1     1
#>  4  21.4     6  258    110  3.08  3.22  19.4     1     0     3     1     3
#>  5  18.7     8  360    175  3.15  3.44  17.0     0     0     3     2     1
#>  6  18.1     6  225    105  2.76  3.46  20.2     1     0     3     1     4
#>  7  14.3     8  360    245  3.21  3.57  15.8     0     0     3     4     2
#>  8  24.4     4  147.    62  3.69  3.19  20       1     0     4     2     2
#>  9  22.8     4  141.    95  3.92  3.15  22.9     1     0     4     2     3
#> 10  19.2     6  168.   123  3.92  3.44  18.3     1     0     4     4     5
#> # ℹ 22 more rows
…
# Functions returning multiple values
mtcars %>%
  group_by(cyl) %>%
  summarize(all_mpg = mpg)  # All values, not one
#> Warning: Returning more (or less) than 1 row per `summarise()` group was deprecated in
#> dplyr 1.1.0.
#> ℹ Please use `reframe()` instead.
#> ℹ When switching from `summarise()` to `reframe()`, remember that `reframe()`
#>   always returns an ungrouped data frame and adjust accordingly.
#> Call `lifecycle::last_lifecycle_warnings()` to see where this warning was
#> generated.
#> `summarise()` has grouped output by 'cyl'. You can override using the `.groups`
#> argument.
#> # A tibble: 32 × 2
#> # Groups:   cyl [3]
#>      cyl all_mpg
#>    <dbl>   <dbl>
#>  1     4    22.8
#>  2     4    24.4
#>  3     4    22.8
#>  4     4    32.4
#>  5     4    30.4
#>  6     4    33.9
#>  7     4    21.5
#>  8     4    27.3
#>  9     4    26  
#> 10     4    30.4
#> # ℹ 22 more rows
…
